#FIG 3.2  Produced by xfig version 3.2.6a
Landscape
Center
Inches
Letter
100.00
Single
-2
1200 2
0 32 #9c0000
0 33 #8c8c8c
0 34 #8c8c8c
0 35 #424242
0 36 #8c8c8c
0 37 #424242
0 38 #8c8c8c
0 39 #424242
0 40 #8c8c8c
0 41 #424242
0 42 #8c8c8c
0 43 #424242
0 44 #c2c2c2
0 45 #6e6e6e
0 46 #444444
0 47 #8e8f8e
0 48 #717171
0 49 #aeaeae
0 50 #333333
0 51 #949395
0 52 #747075
0 53 #555555
0 54 #b3b3b3
0 55 #c3c3c3
0 56 #6d6d6d
0 57 #454545
0 58 #8e8e8e
0 59 #dd9d93
0 60 #f1ece0
0 61 #e2c8a8
0 62 #e1e1e1
0 63 #d2d2d2
0 64 #ededed
0 65 #da7a1a
0 66 #f1e41a
0 67 #887dc2
0 68 #d6d6d6
0 69 #8c8ca5
0 70 #4a4a4a
0 71 #8c6b6b
0 72 #5a5a5a
0 73 #636363
0 74 #b79b73
0 75 #4193ff
0 76 #bf703b
0 77 #db7700
0 78 #dab800
0 79 #006400
0 80 #5a6b3b
0 81 #d3d3d3
0 82 #aaaaaa
0 83 #8e8ea4
0 84 #f3b95d
0 85 #89996b
0 86 #646464
0 87 #b7e6ff
0 88 #86c0ec
0 89 #bdbdbd
0 90 #d39552
0 91 #98d2fe
0 92 #8c9c6b
0 93 #f76b00
0 94 #5a6b39
0 95 #8c9c6b
0 96 #8c9c7b
0 97 #184a18
0 98 #adadad
0 99 #f7bd5a
0 100 #636b9c
0 101 #f7f7f7
0 102 #de0000
0 103 #adadad
0 104 #f7bd5a
0 105 #adadad
0 106 #f7bd5a
0 107 #636b9c
0 108 #526b29
0 109 #949494
0 110 #006300
0 111 #00634a
0 112 #7b844a
0 113 #e7bd7b
0 114 #a5b5c6
0 115 #6b6b94
0 116 #846b6b
0 117 #529c4a
0 118 #d6e7e7
0 119 #526363
0 120 #186b4a
0 121 #9ca5b5
0 122 #ff9400
0 123 #ff9400
0 124 #00634a
0 125 #7b844a
0 126 #63737b
0 127 #e7bd7b
0 128 #184a18
0 129 #dedede
0 130 #f3eed3
0 131 #f5ae5d
0 132 #95ce99
0 133 #b5157d
0 134 #eeeeee
0 135 #848484
0 136 #7b7b7b
0 137 #005a00
0 138 #e77373
0 139 #ffcb31
0 140 #29794a
0 141 #de2821
0 142 #2159c6
0 143 #f8f8f8
0 144 #e6e6e6
0 145 #21845a
0 146 #c9c9c9
0 147 #dfd8df
0 148 #cdcdcd
0 149 #6c6c6c
0 150 #414541
0 151 #c0c0c0
0 152 #e7e7e7
0 153 #717571
0 154 #f7f3f7
0 155 #c6b797
0 156 #404040
0 157 #808080
0 158 #e0e0e0
0 159 #d7d7d7
0 160 #bebebe
0 161 #515151
0 162 #e7e3e7
0 163 #000049
0 164 #797979
0 165 #303430
0 166 #414141
0 167 #c7b696
0 168 #e2e2ee
0 169 #94949a
0 170 #dbdbdb
0 171 #a1a1b7
0 172 #86acff
0 173 #7070ff
0 174 #eff8ff
0 175 #dccba6
0 176 #868286
0 177 #c7c3c7
0 178 #9e9e9e
0 179 #757575
0 180 #effbff
0 181 #f3f3f3
0 182 #d7d3d7
0 183 #aeaaae
0 184 #303030
0 185 #515551
0 186 #666666
0 187 #868686
0 188 #c7c7c7
0 189 #000000
0 190 #ffffff
0 191 #565151
0 192 #85807d
0 193 #7b79a5
0 194 #73758c
0 195 #635dce
0 196 #3a3a3a
0 197 #4573aa
0 198 #b0a193
0 199 #837cdd
0 200 #ff9a00
0 201 #f73829
0 202 #ffff52
0 203 #52794a
0 204 #639a5a
0 205 #c66142
0 206 #e76942
0 207 #ff7952
0 208 #d9d9d9
0 209 #569eb0
0 210 #b5b6c6
0 211 #848284
0 212 #c6c3c6
0 213 #dedfde
0 214 #424542
0 215 #c6c7c6
0 216 #525d6b
0 217 #9c9a9c
0 218 #cccccc
0 219 #616161
0 220 #aeb2ae
6 5775 5175 5925 5925
6 5775 5250 5925 5775
5 1 0 1 0 7 50 -1 -1 0.000 0 0 0 0 5775.000 5400.000 5775 5325 5850 5400 5775 5475
5 1 0 1 0 7 50 -1 -1 0.000 0 0 0 0 5775.000 5550.000 5775 5475 5850 5550 5775 5625
5 1 0 1 0 7 50 -1 -1 0.000 0 0 0 0 5775.000 5700.000 5775 5625 5850 5700 5775 5775
-6
2 1 0 1 0 7 50 -1 -1 0.000 0 0 -1 0 0 2
	 5775 5325 5775 5175
2 1 0 1 0 7 50 -1 -1 0.000 0 0 -1 0 0 2
	 5775 5775 5775 5925
-6
6 5925 5475 6300 5700
4 0 0 50 -1 16 12 0.0000 4 150 105 5925 5625 L\001
4 0 0 50 -1 16 9 0.0000 4 90 210 6030 5685 cet\001
-6
6 6450 5250 6600 5925
2 1 0 1 0 7 100 0 -1 0.000 0 0 -1 0 0 12
	 6525 5250 6525 5395 6450 5419 6600 5467 6450 5515 6600 5563
	 6450 5611 6600 5659 6450 5707 6600 5755 6525 5779 6525 5925
-6
6 6675 5475 6975 5700
4 0 0 50 -1 16 12 0.0000 4 150 135 6675 5625 R\001
4 0 0 50 -1 16 9 0.0000 4 75 165 6810 5685 ec\001
-6
6 5100 5475 5550 5700
4 0 0 50 -1 16 12 0.0000 4 150 135 5100 5625 C\001
4 0 0 50 -1 16 9 0.0000 4 75 285 5235 5685 mec\001
-6
6 4725 5325 5025 5850
2 1 0 1 0 7 50 -1 -1 0.000 0 0 -1 0 0 2
	 5025 5550 4725 5550
2 1 0 1 0 7 50 -1 -1 0.000 0 0 -1 0 0 2
	 5025 5625 4725 5625
2 1 0 1 0 7 50 -1 -1 0.000 0 0 -1 0 0 2
	 4875 5550 4875 5325
2 1 0 1 0 7 50 -1 -1 0.000 0 0 -1 0 0 2
	 4875 5850 4875 5625
-6
6 3600 4725 4275 4875
2 1 0 1 0 7 100 0 -1 0.000 0 0 -1 0 0 12
	 3600 4800 3745 4800 3769 4875 3817 4725 3865 4875 3913 4725
	 3961 4875 4009 4725 4057 4875 4105 4725 4129 4800 4275 4800
-6
6 3825 4425 4050 4650
4 0 0 50 -1 16 12 0.0000 4 150 135 3825 4575 R\001
4 0 0 50 -1 16 9 0.0000 4 75 90 3960 4635 e\001
-6
6 3225 4725 3375 4875
1 3 0 1 0 7 0 -1 20 0.000 1 0.0000 3300 4800 75 75 3300 4800 3375 4800
-6
6 3225 6225 3375 6375
1 3 0 1 0 7 0 -1 20 0.000 1 0.0000 3300 6300 75 75 3300 6300 3375 6300
-6
2 1 0 1 0 7 50 -1 -1 0.000 0 0 -1 0 0 2
	 3300 4800 3675 4800
2 1 0 1 0 7 50 -1 -1 0.000 0 0 -1 0 0 3
	 4275 4800 4875 4800 4875 5325
2 1 0 1 0 7 50 -1 -1 0.000 0 0 -1 0 0 3
	 4875 5850 4875 6300 3300 6300
2 1 0 1 0 7 50 -1 -1 0.000 0 0 -1 0 0 3
	 4875 4800 5775 4800 5775 5175
2 1 0 1 0 7 50 -1 -1 0.000 0 0 -1 0 0 3
	 5775 5925 5775 6300 4875 6300
2 1 0 1 0 7 50 -1 -1 0.000 0 0 -1 0 0 3
	 5775 4800 6525 4800 6525 5325
2 1 0 1 0 7 50 -1 -1 0.000 0 0 -1 0 0 3
	 6525 5925 6525 6300 5775 6300
