#FIG 3.2  Produced by xfig version 3.2.6a
Landscape
Center
Inches
Letter
100.00
Single
-2
1200 2
0 32 #ff0000
0 33 #00ff00
0 34 #c2c2c3
0 35 #c9c9c9
0 36 #dfd8df
0 37 #f7f3f7
0 38 #e7e7e7
0 39 #717571
0 40 #9c0000
0 41 #8c8c8c
0 42 #8c8c8c
0 43 #424242
0 44 #c2c2c2
0 45 #6e6e6e
0 46 #444444
0 47 #8e8f8e
0 48 #717171
0 49 #aeaeae
0 50 #333333
0 51 #949395
0 52 #747075
0 53 #555555
0 54 #b3b3b3
0 55 #c3c3c3
0 56 #6d6d6d
0 57 #454545
0 58 #8e8e8e
0 59 #dd9d93
0 60 #f1ece0
0 61 #e2c8a8
0 62 #e1e1e1
0 63 #d2d2d2
0 64 #ededed
0 65 #da7a1a
0 66 #f1e41a
0 67 #887dc2
0 68 #d6d6d6
0 69 #8c8ca5
0 70 #4a4a4a
0 71 #8c6b6b
0 72 #5a5a5a
0 73 #636363
0 74 #b79b73
0 75 #4193ff
0 76 #bf703b
0 77 #db7700
0 78 #dab800
0 79 #006400
0 80 #5a6b3b
0 81 #d3d3d3
0 82 #aaaaaa
0 83 #8e8ea4
0 84 #f3b95d
0 85 #89996b
0 86 #646464
0 87 #b7e6ff
0 88 #86c0ec
0 89 #bdbdbd
0 90 #d39552
0 91 #98d2fe
0 92 #8c9c6b
0 93 #f76b00
0 94 #5a6b39
0 95 #8c9c6b
0 96 #8c9c7b
0 97 #184a18
0 98 #adadad
0 99 #f7bd5a
0 100 #636b9c
0 101 #f7f7f7
0 102 #de0000
0 103 #adadad
0 104 #f7bd5a
0 105 #adadad
0 106 #f7bd5a
0 107 #636b9c
0 108 #526b29
0 109 #949494
0 110 #006300
0 111 #00634a
0 112 #7b844a
0 113 #e7bd7b
0 114 #a5b5c6
0 115 #6b6b94
0 116 #846b6b
0 117 #529c4a
0 118 #d6e7e7
0 119 #526363
0 120 #186b4a
0 121 #9ca5b5
0 122 #ff9400
0 123 #ff9400
0 124 #00634a
0 125 #7b844a
0 126 #63737b
0 127 #e7bd7b
0 128 #184a18
0 129 #dedede
0 130 #f3eed3
0 131 #f5ae5d
0 132 #95ce99
0 133 #b5157d
0 134 #eeeeee
0 135 #848484
0 136 #7b7b7b
0 137 #005a00
0 138 #e77373
0 139 #ffcb31
0 140 #29794a
0 141 #de2821
0 142 #2159c6
0 143 #f8f8f8
0 144 #e6e6e6
0 145 #21845a
0 146 #cdcdcd
0 147 #6c6c6c
0 148 #414541
0 149 #c0c0c0
0 150 #c6b797
0 151 #eff8ff
0 152 #dccba6
0 153 #404040
0 154 #808080
0 155 #e0e0e0
0 156 #d7d7d7
0 157 #bebebe
0 158 #515151
0 159 #e7e3e7
0 160 #000049
0 161 #797979
0 162 #303430
0 163 #414141
0 164 #c7b696
0 165 #e2e2ee
0 166 #94949a
0 167 #dbdbdb
0 168 #a1a1b7
0 169 #86acff
0 170 #7070ff
0 171 #868286
0 172 #c7c3c7
0 173 #868686
0 174 #c7c7c7
0 175 #9e9e9e
0 176 #757575
0 177 #effbff
0 178 #f3f3f3
0 179 #d7d3d7
0 180 #aeaaae
0 181 #303030
0 182 #515551
0 183 #666666
0 184 #000000
0 185 #ffffff
0 186 #565151
0 187 #85807d
0 188 #3a3a3a
0 189 #4573aa
0 190 #7b79a5
0 191 #73758c
0 192 #635dce
0 193 #b0a193
0 194 #837cdd
0 195 #616161
0 196 #aeb2ae
0 197 #ff9a00
0 198 #f73829
0 199 #ffff52
0 200 #52794a
0 201 #639a5a
0 202 #c66142
0 203 #e76942
0 204 #ff7952
0 205 #d9d9d9
0 206 #569eb0
0 207 #b5b6c6
0 208 #848284
0 209 #c6c3c6
0 210 #dedfde
0 211 #424542
0 212 #c6c7c6
0 213 #525d6b
0 214 #9c9a9c
0 215 #cccccc
6 5626 -546 6311 -396
6 5626 -546 5776 -396
6 5626 -546 5776 -396
1 3 0 1 0 7 50 -1 -1 0.000 1 0.0000 5701 -471 75 75 5701 -471 5776 -471
2 1 0 1 0 7 50 -1 -1 0.000 0 0 -1 0 0 2
	 5776 -546 5626 -396
-6
-6
4 0 0 30 -1 16 12 0.0000 4 135 480 5831 -401 0.187\001
-6
1 3 0 1 0 7 40 -1 10 0.000 1 0.0000 240 240 113 113 240 240 353 240
1 3 0 1 0 7 40 -1 10 0.000 1 0.0000 240 4560 113 113 240 4560 353 4560
1 3 0 1 0 7 40 -1 10 0.000 1 0.0000 6960 240 113 113 6960 240 7073 240
1 3 0 1 0 7 40 -1 10 0.000 1 0.0000 6960 4560 113 113 6960 4560 7073 4560
2 2 0 1 0 13 70 -1 30 0.000 0 0 -1 0 0 5
	 0 0 7200 0 7200 4800 0 4800 0 0
2 1 1 1 0 7 10 -1 -1 4.000 0 0 -1 0 0 2
	 0 0 0 5400
2 1 1 1 0 7 10 -1 -1 4.000 0 0 -1 0 0 2
	 240 240 240 5400
2 1 1 1 0 7 10 -1 -1 4.000 0 0 -1 0 0 2
	 6960 240 6960 5400
2 1 1 1 0 7 10 -1 -1 4.000 0 0 -1 0 0 2
	 7200 240 7200 5400
2 1 1 1 0 7 10 -1 -1 4.000 0 0 -1 0 0 2
	 -600 4800 7200 4800
2 1 1 1 0 7 10 -1 -1 4.000 0 0 -1 0 0 2
	 -600 4560 6960 4560
2 1 1 1 0 7 10 -1 -1 4.000 0 0 -1 0 0 2
	 -600 240 6960 240
2 1 1 1 0 7 10 -1 -1 4.000 0 0 -1 0 0 2
	 -600 0 7200 0
3 0 0 1 0 7 10 -1 -1 0.000 0 1 0 4
	1 1 1.00 60.00 60.00
	 6371 -416 6596 -116 6671 -266 6896 109
	 0.000 1.000 1.000 0.000
4 0 0 50 -1 16 12 1.5708 4 135 105 75 5550 0\001
4 0 0 50 -1 16 12 1.5708 4 135 270 300 5700 0.2\001
4 0 0 50 -1 16 12 1.5708 4 135 270 7275 5700 6.0\001
4 0 0 50 -1 16 12 1.5708 4 135 270 7025 5700 5.8\001
4 0 0 50 -1 16 12 0.0000 4 135 270 -970 4628 0.2\001
4 0 0 50 -1 16 12 0.0000 4 135 105 -800 4873 0\001
4 0 0 50 -1 16 12 0.0000 4 135 270 -970 323 3.8\001
4 0 0 50 -1 16 12 0.0000 4 135 270 -970 73 4.0\001
4 0 0 50 -1 16 12 0.0000 4 135 210 5386 -406 4x\001
4 0 0 50 -1 16 12 0.0000 4 195 2400 3856 -116 For Keystone 8831 spacers\001
